IEEE 68 bus system
Fault type: no fault 
Load changes: YES 
Start time of load changes: 9.00 
Start time of load changes: 28.00 
End time of load changes:  
Load buses where the load changes: 33 
Load buses where the load changes: 1 
Load buses where the load changes: 21 
Magnitude of load changes: -0.01 
Magnitude of load changes: -0.56 
Magnitude of load changes: 0.67 
Magnitude of load changes: -0.10 
Magnitude of load changes: -0.05 
Magnitude of load changes: -0.56 
Power system stabilizer (PSS): NO 
Automatic generation control (AGC): YES 
PMU attack: NO
Generator Type (at all generators): Subtransient round rotor 
 
Reproducing the sw_con variable information to understand the step time(s), simulation time(s), and event description. 

sw_con = 
0.00 0 0 0 0 0 0.010 
0.05 1 2 0 0 6 0.010 
0.10 0 0 0 0 0 0.010 
0.20 0 0 0 0 0 0.010 
0.50 0 0 0 0 0 0.010 
60.00 0 0 0 0 0 0.010 

 
PMU locations = 
1 	2 	3 	4 	5 	6 	7 	8 	9 	10 	11 	12 	13 	14 	15 	16 	17 	18 	19 	20 	21 	22 	23 	24 	25 	26 	27 	28 	29 	30 	31 	32 	33 	34 	35 	36 	37 	38 	39 	40 	41 	42 	43 	44 	45 	46 	47 	48 	49 	50 	51 	52 	53 	54 	55 	56 	57 	58 	59 	60 	61 	62 	63 	64 	65 	66 	67 	68 	
 
SCADA locations = 
1 	2 	3 	4 	5 	6 	7 	8 	9 	10 	11 	12 	13 	14 	15 	16 	17 	18 	19 	20 	21 	22 	23 	24 	25 	26 	27 	28 	29 	30 	31 	32 	33 	34 	35 	36 	37 	38 	39 	40 	41 	42 	43 	44 	45 	46 	47 	48 	49 	50 	51 	52 	53 	54 	55 	56 	57 	58 	59 	60 	61 	62 	63 	64 	65 	66 	67 	68 	
 
Number of PMU measurements per second) = 
50 	
 
Number of SCADA measurements every 2 seconds) = 
1 	